NBA Best Shooting Team
…
First we will create a new data frame that includes data only in the last mintue of games for all teams including the field goal or shooting percentage.

team_fgpct_last_min <- data.frame()

team_fgpct_last_min <- season_stats_df %>%
  filter(GAME_CLOCK <= 60) %>%
  group_by(TEAM) %>%
  summarise(sum(SHOT_RESULT == "made"), sum(SHOT_RESULT == "missed"))
names(team_fgpct_last_min)[names(team_fgpct_last_min) == "sum(SHOT_RESULT == \"made\")"] <- "Made"
names(team_fgpct_last_min)[names(team_fgpct_last_min) == "sum(SHOT_RESULT == \"missed\")"] <- "Missed"
team_fgpct_last_min$Total <- team_fgpct_last_min$Made + team_fgpct_last_min$Missed
team_fgpct_last_min$FG_PCT <- team_fgpct_last_min$Made / team_fgpct_last_min$Total
team_fgpct_last_min

## # A tibble: 30 x 5
##    TEAM    Made Missed Total FG_PCT
##    <chr>  <int>  <int> <int>  <dbl>
##  1 " ATL"   189    236   425  0.445
##  2 " BKN"   172    259   431  0.399
##  3 " BOS"   171    282   453  0.377
##  4 " CHA"   186    266   452  0.412
##  5 " CHI"   184    291   475  0.387
##  6 " CLE"   157    206   363  0.433
##  7 " DAL"   181    258   439  0.412
##  8 " DEN"   162    281   443  0.366
##  9 " DET"   165    257   422  0.391
## 10 " GSW"   182    220   402  0.453
## #  with 20 more rows
…
